<?xml version="1.0" encoding="utf-8"?>
<!-- Generator: Adobe Illustrator 16.0.0, SVG Export Plug-In . SVG Version: 6.00 Build 0)  -->
<!DOCTYPE svg PUBLIC "-//W3C//DTD SVG 1.1 Tiny//EN" "http://www.w3.org/Graphics/SVG/1.1/DTD/svg11-tiny.dtd">
<svg version="1.1" baseProfile="tiny" id="Layer_1" xmlns="http://www.w3.org/2000/svg" xmlns:xlink="http://www.w3.org/1999/xlink"
	 x="0px" y="0px" width="726.39px" height="726.396px" viewBox="0 0 726.39 726.396" xml:space="preserve">
<path fill="#E6E7E8" d="M725.128,362.567C725.128,162.335,562.808,0,362.561,0C162.328,0,0,162.335,0,362.567
	s162.328,362.567,362.561,362.567C562.808,725.135,725.128,562.8,725.128,362.567z"/>
<g>
	<rect x="-0.002" y="103.74" fill="none" width="725.125" height="304.336"/>
	<path d="M252.082,106.618h6.96v26h0.24c1.44-2.08,2.88-4,4.24-5.76l16.48-20.24h8.64l-19.521,22.88l21.041,31.041h-8.24
		l-17.761-26.48l-5.12,5.92v20.561h-6.96V106.618z"/>
	<path d="M311.441,107.338c3.521-0.72,8.561-1.12,13.36-1.12c7.44,0,12.24,1.36,15.601,4.4c2.72,2.399,4.24,6.08,4.24,10.24
		c0,7.12-4.48,11.84-10.16,13.76v0.24c4.16,1.44,6.64,5.28,7.92,10.88c1.76,7.521,3.04,12.721,4.16,14.801h-7.2
		c-0.88-1.521-2.08-6.16-3.601-12.88c-1.6-7.44-4.479-10.24-10.8-10.48h-6.561v23.36h-6.96V107.338z M318.401,131.898h7.12
		c7.44,0,12.16-4.08,12.16-10.24c0-6.96-5.04-10-12.399-10.08c-3.36,0-5.761,0.32-6.881,0.64V131.898z"/>
	<path d="M416.801,133.019c0,18.561-11.28,28.4-25.04,28.4c-14.241,0-24.241-11.04-24.241-27.36c0-17.12,10.641-28.32,25.041-28.32
		C407.28,105.738,416.801,117.018,416.801,133.019z M374.96,133.898c0,11.521,6.24,21.841,17.2,21.841
		c11.04,0,17.28-10.16,17.28-22.4c0-10.721-5.6-21.921-17.2-21.921C380.72,111.418,374.96,122.059,374.96,133.898z"/>
	<path d="M441.839,106.618h6.96v26h0.24c1.44-2.08,2.88-4,4.24-5.76l16.48-20.24h8.64l-19.521,22.88l21.041,31.041h-8.24
		l-17.761-26.48l-5.12,5.92v20.561h-6.96V106.618z"/>
</g>
<g>
	<path d="M480.754,209.834v60.788H337.171l-12.54,95.931c46.81,3.351,84.959,15.577,114.428,36.68
		c29.469,21.112,44.203,52.354,44.203,93.736c0,33.858-11.285,63.121-33.857,87.78c-22.572,24.668-57.685,36.993-105.336,36.993
		c-23.415,0-46.3-3.136-68.657-9.405c-22.366-6.271-40.235-13.579-53.608-21.945l25.08-57.684
		c32.604,17.977,63.954,26.961,94.05,26.961c42.637,0,63.954-20.476,63.954-61.446c0-50.992-49.954-76.494-149.853-76.494
		l26.961-210.672h124.773"/>
</g>
<g>
</g>
<g>
</g>
<g>
</g>
<g>
</g>
<g>
</g>
<g>
</g>
</svg>
